(kicad_sch (version 20210126) (generator eeschema)

  (paper "A3")

  (title_block
    (title "BeagleBone AI AM57x")
    (date "2021-01-15")
    (rev "03")
    (company "KiCad Services Corporation")
  )

  (lib_symbols
  )


  (sheet (at 153.67 107.95) (size 52.07 54.61)
    (stroke (width 0.001) (type solid) (color 132 0 132 1))
    (fill (color 255 255 255 0.0000))
    (uuid 3b25690f-bcb0-4305-80ee-1070fbc591fe)
    (property "Sheet name" "PMIC1" (id 0) (at 153.67 107.3141 0)
      (effects (font (size 1.27 1.27)) (justify left bottom))
    )
    (property "Sheet file" "pmic1.kicad_sch" (id 1) (at 153.67 163.0689 0)
      (effects (font (size 1.27 1.27)) (justify left top))
    )
  )

  (sheet (at 214.63 107.95) (size 50.8 54.61)
    (stroke (width 0.001) (type solid) (color 132 0 132 1))
    (fill (color 255 255 255 0.0000))
    (uuid 8ed68f75-698d-4e17-add5-3b10ac011c5a)
    (property "Sheet name" "PMIC2" (id 0) (at 214.63 107.3141 0)
      (effects (font (size 1.27 1.27)) (justify left bottom))
    )
    (property "Sheet file" "pmic2.kicad_sch" (id 1) (at 214.63 163.0689 0)
      (effects (font (size 1.27 1.27)) (justify left top))
    )
  )
)
